<svg width="100" height="100" viewBox="0 0 100 100" fill="none" xmlns="http://www.w3.org/2000/svg">
<path d="M50.0002 8.33337C27.0252 8.33337 8.3335 27.025 8.3335 50C8.3335 72.975 27.0252 91.6667 50.0002 91.6667C72.9752 91.6667 91.6668 72.975 91.6668 50C91.6668 27.025 72.9752 8.33337 50.0002 8.33337ZM54.1668 75H45.8335V66.6667H54.1668V75ZM58.2335 54.6459C57.4168 55.3042 56.6293 55.9334 56.0043 56.5584C54.3043 58.2542 54.171 59.7959 54.1668 59.8625V60.4167H45.8335V59.7209C45.8335 59.2292 45.9543 54.8167 50.1085 50.6625C50.921 49.85 51.9293 49.025 52.9877 48.1667C56.046 45.6875 58.0543 43.8792 58.0543 41.3875C58.0059 39.2826 57.1356 37.2802 55.6296 35.8089C54.1236 34.3375 52.1015 33.514 49.996 33.5145C47.8906 33.515 45.8689 34.3396 44.3637 35.8118C42.8584 37.2839 41.9892 39.2868 41.9418 41.3917H33.6085C33.6085 32.3542 40.9627 25 50.0002 25C59.0377 25 66.3918 32.3542 66.3918 41.3917C66.3918 48.0459 61.4793 52.0167 58.2335 54.6459V54.6459Z" fill="black"/>
</svg>
