<svg width="48" height="48" viewBox="0 0 48 48" fill="none" xmlns="http://www.w3.org/2000/svg">
<path d="M34.6667 36V28.8H16V19.2H34.6667V12L48 24L34.6667 36ZM29.3333 0C30.7478 0 32.1044 0.505713 33.1046 1.40589C34.1048 2.30606 34.6667 3.52696 34.6667 4.8V9.6H29.3333V4.8H5.33333V43.2H29.3333V38.4H34.6667V43.2C34.6667 44.473 34.1048 45.6939 33.1046 46.5941C32.1044 47.4943 30.7478 48 29.3333 48H5.33333C3.91885 48 2.56229 47.4943 1.5621 46.5941C0.561903 45.6939 0 44.473 0 43.2V4.8C0 3.52696 0.561903 2.30606 1.5621 1.40589C2.56229 0.505713 3.91885 0 5.33333 0H29.3333Z" fill="#2C7634"/>
</svg>
